{
  "project_info": {
    "project_number": "848772820846",
    "firebase_url": "https://in-gauge.firebaseio.com",
    "project_id": "in-gauge",
    "storage_bucket": "in-gauge.appspot.com"
  },
  "client": [
    {
      "client_info": {
        "mobilesdk_app_id": "1:848772820846:android:e83332fa5d59c97b",
        "android_client_info": {
          "package_name": "app.fpg.ingauge.com"
        }
      },
      "oauth_client": [
        {
          "client_id": "848772820846-r7o1j33pjf1bjf91p0p38a9hbi9eacsi.apps.googleusercontent.com",
          "client_type": 3
        }
      ],
      "api_key": [
        {
          "current_key": "AIzaSyCRseAIMHIM59CcKMhvYcr-0ivs5d0CMY0"
        }
      ],
      "services": {
        "analytics_service": {
          "status": 1
        },
        "appinvite_service": {
          "status": 1,
          "other_platform_oauth_client": []
        },
        "ads_service": {
          "status": 2
        }
      }
    }
  ],
  "configuration_version": "1"
}