{
  "data": [
    {
      "id": 1,
      "activeStatus": "Normal",
      "indexRelatedOnly": false,
      "indexMainOnly": false,
      "name": "Hotel1",
      "description": "Hospitality"
    },
    {
      "id": 2,
      "activeStatus": "Normal",
      "indexRelatedOnly": false,
      "indexMainOnly": false,
      "name": "CarRental1",
      "description": "Automotive"
    },
    {
      "id": 3,
      "activeStatus": "Normal",
      "indexRelatedOnly": false,
      "indexMainOnly": false,
      "name": "ThemeParkCC1",
      "description": "CALL CENTER"
    },
    {
      "id": 4,
      "activeStatus": "Normal",
      "indexRelatedOnly": false,
      "indexMainOnly": false,
      "name": "CarDealer",
      "description": "NISSAN CAR DEALER"
    },
    {
      "id": 5,
      "activeStatus": "Normal",
      "indexRelatedOnly": false,
      "indexMainOnly": false,
      "name": "Entertainment",
      "description": "SEA WORLD"
    },
    {
      "id": 6,
      "activeStatus": "Normal",
      "indexRelatedOnly": false,
      "indexMainOnly": false,
      "name": "CallCenterHRCC",
      "description": "HR CALL CENTER"
    },
    {
      "id": 7,
      "activeStatus": "Normal",
      "indexRelatedOnly": false,
      "indexMainOnly": false,
      "name": "NissanSales",
      "description": "NISSAN SALES"
    }
  ],
  "status": "SUCCESS",
  "statusCode": 200
}