{
    "data": {
        "tableHeaders": {
            "Agent": "Agent",
            "Incremental Revenue": "Incremental Revenue",
            "Commissionable Revenue": "Commissionable Revenue",
            "Room Upsell Revenue": "Room Upsell Revenue",
            "Other Revenue": "Other Revenue",
            "Incentive Tier": "Incentive Tier",
            "Incentive Payout": "Incentive Payout",
            "Incentive Prior Month": "Incentive Prior Month",
            "Incentive Current Year": "Incentive Current Year",
            "Incentive Prior Year": "Incentive Prior Year",
            "Trend": "Trendssss"
        },
        "tableDatas": [
            {
                "Agent": "Abiy Gebretsadik",
                "Incentive Current Year": "$ 13.35",
                "entityType": "User",
                "Incremental Revenue": "$ 0.00",
                "Room Upsell Revenue": "$ 0.00",
                "socialInteractionColumnNames": "Incremental Revenue,Commissionable Revenue,Room Upsell Revenue,Other Revenue,Incentive Payout,Trend",
                "Trend": "0%",
                "Commissionable Revenue": "$ 0.00",
                "entityId": 6652,
                "Incentive Payout": "$ 0.00",
                "columnNames": "Agent,Incremental Revenue,Commissionable Revenue,Room Upsell Revenue,Other Revenue,Incentive Tier,Incentive Payout,Incentive Prior Month,Incentive Current Year,Incentive Prior Year,Trend",
                "dataStartDate": "2017-09-01",
                "entityName": "Abiy Gebretsadik",
                "Incentive Prior Month": "$ 0.00",
                "Incentive Prior Year": "$ 0.00",
                "Other Revenue": "$ 0.00",
                "dataEndDate": "2017-09-19",
                "Incentive Tier": 0
            },
            {
                "Agent": "Anthony Giraldo",
                "Incentive Current Year": "$ 188.45",
                "entityType": "User",
                "Incremental Revenue": "$ 0.00",
                "Room Upsell Revenue": "$ 0.00",
                "socialInteractionColumnNames": "Incremental Revenue,Commissionable Revenue,Room Upsell Revenue,Other Revenue,Incentive Payout,Trend",
                "Trend": "0%",
                "Commissionable Revenue": "$ 0.00",
                "entityId": 2069,
                "Incentive Payout": "$ 0.00",
                "columnNames": "Agent,Incremental Revenue,Commissionable Revenue,Room Upsell Revenue,Other Revenue,Incentive Tier,Incentive Payout,Incentive Prior Month,Incentive Current Year,Incentive Prior Year,Trend",
                "dataStartDate": "2017-09-01",
                "entityName": "Anthony Giraldo",
                "Incentive Prior Month": "$ 0.00",
                "Incentive Prior Year": "$ 263.40",
                "Other Revenue": "$ 0.00",
                "dataEndDate": "2017-09-19",
                "Incentive Tier": 0
            },
            {
                "Agent": "Ashlie Tibbs",
                "Incentive Current Year": "$ 7,325.70",
                "entityType": "User",
                "Incremental Revenue": "$ 0.00",
                "Room Upsell Revenue": "$ 0.00",
                "socialInteractionColumnNames": "Incremental Revenue,Commissionable Revenue,Room Upsell Revenue,Other Revenue,Incentive Payout,Trend",
                "Trend": "0%",
                "Commissionable Revenue": "$ 0.00",
                "entityId": 2087,
                "Incentive Payout": "$ 0.00",
                "columnNames": "Agent,Incremental Revenue,Commissionable Revenue,Room Upsell Revenue,Other Revenue,Incentive Tier,Incentive Payout,Incentive Prior Month,Incentive Current Year,Incentive Prior Year,Trend",
                "dataStartDate": "2017-09-01",
                "entityName": "Ashlie Tibbs",
                "Incentive Prior Month": "$ 7.50",
                "Incentive Prior Year": "$ 8,678.50",
                "Other Revenue": "$ 0.00",
                "dataEndDate": "2017-09-19",
                "Incentive Tier": 0
            },
            {
                "Agent": "Aurelien Dumont",
                "Incentive Current Year": "$ 0.00",
                "entityType": "User",
                "Incremental Revenue": "$ 0.00",
                "Room Upsell Revenue": "$ 0.00",
                "socialInteractionColumnNames": "Incremental Revenue,Commissionable Revenue,Room Upsell Revenue,Other Revenue,Incentive Payout,Trend",
                "Trend": "0%",
                "Commissionable Revenue": "$ 0.00",
                "entityId": 2316,
                "Incentive Payout": "$ 0.00",
                "columnNames": "Agent,Incremental Revenue,Commissionable Revenue,Room Upsell Revenue,Other Revenue,Incentive Tier,Incentive Payout,Incentive Prior Month,Incentive Current Year,Incentive Prior Year,Trend",
                "dataStartDate": "2017-09-01",
                "entityName": "Aurelien Dumont",
                "Incentive Prior Month": "$ 0.00",
                "Incentive Prior Year": "$ 0.00",
                "Other Revenue": "$ 0.00",
                "dataEndDate": "2017-09-19",
                "Incentive Tier": 0
            },
            {
                "Agent": "Brenda Cullors",
                "Incentive Current Year": "$ 1,271.65",
                "entityType": "User",
                "Incremental Revenue": "$ 0.00",
                "Room Upsell Revenue": "$ 0.00",
                "socialInteractionColumnNames": "Incremental Revenue,Commissionable Revenue,Room Upsell Revenue,Other Revenue,Incentive Payout,Trend",
                "Trend": "0%",
                "Commissionable Revenue": "$ 0.00",
                "entityId": 2074,
                "Incentive Payout": "$ 0.00",
                "columnNames": "Agent,Incremental Revenue,Commissionable Revenue,Room Upsell Revenue,Other Revenue,Incentive Tier,Incentive Payout,Incentive Prior Month,Incentive Current Year,Incentive Prior Year,Trend",
                "dataStartDate": "2017-09-01",
                "entityName": "Brenda Cullors",
                "Incentive Prior Month": "$ 0.00",
                "Incentive Prior Year": "$ 2,822.75",
                "Other Revenue": "$ 0.00",
                "dataEndDate": "2017-09-19",
                "Incentive Tier": 0
            },
            {
                "Agent": "Claudia Montoya",
                "Incentive Current Year": "$ 21.25",
                "entityType": "User",
                "Incremental Revenue": "$ 0.00",
                "Room Upsell Revenue": "$ 0.00",
                "socialInteractionColumnNames": "Incremental Revenue,Commissionable Revenue,Room Upsell Revenue,Other Revenue,Incentive Payout,Trend",
                "Trend": "0%",
                "Commissionable Revenue": "$ 0.00",
                "entityId": 2075,
                "Incentive Payout": "$ 0.00",
                "columnNames": "Agent,Incremental Revenue,Commissionable Revenue,Room Upsell Revenue,Other Revenue,Incentive Tier,Incentive Payout,Incentive Prior Month,Incentive Current Year,Incentive Prior Year,Trend",
                "dataStartDate": "2017-09-01",
                "entityName": "Claudia Montoya",
                "Incentive Prior Month": "$ 0.00",
                "Incentive Prior Year": "$ 170.35",
                "Other Revenue": "$ 0.00",
                "dataEndDate": "2017-09-19",
                "Incentive Tier": 0
            },
            {
                "Agent": "Claudia Robinson",
                "Incentive Current Year": "$ 0.00",
                "entityType": "User",
                "Incremental Revenue": "$ 0.00",
                "Room Upsell Revenue": "$ 0.00",
                "socialInteractionColumnNames": "Incremental Revenue,Commissionable Revenue,Room Upsell Revenue,Other Revenue,Incentive Payout,Trend",
                "Trend": "0%",
                "Commissionable Revenue": "$ 0.00",
                "entityId": 2092,
                "Incentive Payout": "$ 0.00",
                "columnNames": "Agent,Incremental Revenue,Commissionable Revenue,Room Upsell Revenue,Other Revenue,Incentive Tier,Incentive Payout,Incentive Prior Month,Incentive Current Year,Incentive Prior Year,Trend",
                "dataStartDate": "2017-09-01",
                "entityName": "Claudia Robinson",
                "Incentive Prior Month": "$ 0.00",
                "Incentive Prior Year": "$ 0.00",
                "Other Revenue": "$ 0.00",
                "dataEndDate": "2017-09-19",
                "Incentive Tier": 0
            },
            {
                "Agent": "David Ward",
                "Incentive Current Year": "$ 0.00",
                "entityType": "User",
                "Incremental Revenue": "$ 0.00",
                "Room Upsell Revenue": "$ 0.00",
                "socialInteractionColumnNames": "Incremental Revenue,Commissionable Revenue,Room Upsell Revenue,Other Revenue,Incentive Payout,Trend",
                "Trend": "0%",
                "Commissionable Revenue": "$ 0.00",
                "entityId": 7207,
                "Incentive Payout": "$ 0.00",
                "columnNames": "Agent,Incremental Revenue,Commissionable Revenue,Room Upsell Revenue,Other Revenue,Incentive Tier,Incentive Payout,Incentive Prior Month,Incentive Current Year,Incentive Prior Year,Trend",
                "dataStartDate": "2017-09-01",
                "entityName": "David Ward",
                "Incentive Prior Month": "$ 0.00",
                "Incentive Prior Year": "$ 0.00",
                "Other Revenue": "$ 0.00",
                "dataEndDate": "2017-09-19",
                "Incentive Tier": 0
            },
            {
                "Agent": "Glenn Fife",
                "Incentive Current Year": "$ 1,118.35",
                "entityType": "User",
                "Incremental Revenue": "$ 0.00",
                "Room Upsell Revenue": "$ 0.00",
                "socialInteractionColumnNames": "Incremental Revenue,Commissionable Revenue,Room Upsell Revenue,Other Revenue,Incentive Payout,Trend",
                "Trend": "0%",
                "Commissionable Revenue": "$ 0.00",
                "entityId": 5964,
                "Incentive Payout": "$ 0.00",
                "columnNames": "Agent,Incremental Revenue,Commissionable Revenue,Room Upsell Revenue,Other Revenue,Incentive Tier,Incentive Payout,Incentive Prior Month,Incentive Current Year,Incentive Prior Year,Trend",
                "dataStartDate": "2017-09-01",
                "entityName": "Glenn Fife",
                "Incentive Prior Month": "$ 0.00",
                "Incentive Prior Year": "$ 0.00",
                "Other Revenue": "$ 0.00",
                "dataEndDate": "2017-09-19",
                "Incentive Tier": 0
            },
            {
                "Agent": "Hahnah Dupaty",
                "Incentive Current Year": "$ 355.60",
                "entityType": "User",
                "Incremental Revenue": "$ 0.00",
                "Room Upsell Revenue": "$ 0.00",
                "socialInteractionColumnNames": "Incremental Revenue,Commissionable Revenue,Room Upsell Revenue,Other Revenue,Incentive Payout,Trend",
                "Trend": "0%",
                "Commissionable Revenue": "$ 0.00",
                "entityId": 2071,
                "Incentive Payout": "$ 0.00",
                "columnNames": "Agent,Incremental Revenue,Commissionable Revenue,Room Upsell Revenue,Other Revenue,Incentive Tier,Incentive Payout,Incentive Prior Month,Incentive Current Year,Incentive Prior Year,Trend",
                "dataStartDate": "2017-09-01",
                "entityName": "Hahnah Dupaty",
                "Incentive Prior Month": "$ 0.00",
                "Incentive Prior Year": "$ 745.70",
                "Other Revenue": "$ 0.00",
                "dataEndDate": "2017-09-19",
                "Incentive Tier": 0
            },
            {
                "Agent": "Jacob Niblack",
                "Incentive Current Year": "$ 822.80",
                "entityType": "User",
                "Incremental Revenue": "$ 0.00",
                "Room Upsell Revenue": "$ 0.00",
                "socialInteractionColumnNames": "Incremental Revenue,Commissionable Revenue,Room Upsell Revenue,Other Revenue,Incentive Payout,Trend",
                "Trend": "0%",
                "Commissionable Revenue": "$ 0.00",
                "entityId": 2088,
                "Incentive Payout": "$ 0.00",
                "columnNames": "Agent,Incremental Revenue,Commissionable Revenue,Room Upsell Revenue,Other Revenue,Incentive Tier,Incentive Payout,Incentive Prior Month,Incentive Current Year,Incentive Prior Year,Trend",
                "dataStartDate": "2017-09-01",
                "entityName": "Jacob Niblack",
                "Incentive Prior Month": "$ 0.00",
                "Incentive Prior Year": "$ 698.15",
                "Other Revenue": "$ 0.00",
                "dataEndDate": "2017-09-19",
                "Incentive Tier": 0
            },
            {
                "Agent": "Janet Cortes",
                "Incentive Current Year": "$ 4,938.95",
                "entityType": "User",
                "Incremental Revenue": "$ 0.00",
                "Room Upsell Revenue": "$ 0.00",
                "socialInteractionColumnNames": "Incremental Revenue,Commissionable Revenue,Room Upsell Revenue,Other Revenue,Incentive Payout,Trend",
                "Trend": "0%",
                "Commissionable Revenue": "$ 0.00",
                "entityId": 3983,
                "Incentive Payout": "$ 0.00",
                "columnNames": "Agent,Incremental Revenue,Commissionable Revenue,Room Upsell Revenue,Other Revenue,Incentive Tier,Incentive Payout,Incentive Prior Month,Incentive Current Year,Incentive Prior Year,Trend",
                "dataStartDate": "2017-09-01",
                "entityName": "Janet Cortes",
                "Incentive Prior Month": "$ 3.50",
                "Incentive Prior Year": "$ 879.25",
                "Other Revenue": "$ 0.00",
                "dataEndDate": "2017-09-19",
                "Incentive Tier": 0
            },
            {
                "Agent": "JANICE BARRIOS",
                "Incentive Current Year": "$ 0.00",
                "entityType": "User",
                "Incremental Revenue": "$ 0.00",
                "Room Upsell Revenue": "$ 0.00",
                "socialInteractionColumnNames": "Incremental Revenue,Commissionable Revenue,Room Upsell Revenue,Other Revenue,Incentive Payout,Trend",
                "Trend": "0%",
                "Commissionable Revenue": "$ 0.00",
                "entityId": 265,
                "Incentive Payout": "$ 0.00",
                "columnNames": "Agent,Incremental Revenue,Commissionable Revenue,Room Upsell Revenue,Other Revenue,Incentive Tier,Incentive Payout,Incentive Prior Month,Incentive Current Year,Incentive Prior Year,Trend",
                "dataStartDate": "2017-09-01",
                "entityName": "JANICE BARRIOS",
                "Incentive Prior Month": "$ 0.00",
                "Incentive Prior Year": "$ 0.00",
                "Other Revenue": "$ 0.00",
                "dataEndDate": "2017-09-19",
                "Incentive Tier": 0
            },
            {
                "Agent": "Jeremy Fischer",
                "Incentive Current Year": "$ 1,332.40",
                "entityType": "User",
                "Incremental Revenue": "$ 0.00",
                "Room Upsell Revenue": "$ 0.00",
                "socialInteractionColumnNames": "Incremental Revenue,Commissionable Revenue,Room Upsell Revenue,Other Revenue,Incentive Payout,Trend",
                "Trend": "0%",
                "Commissionable Revenue": "$ 0.00",
                "entityId": 5966,
                "Incentive Payout": "$ 0.00",
                "columnNames": "Agent,Incremental Revenue,Commissionable Revenue,Room Upsell Revenue,Other Revenue,Incentive Tier,Incentive Payout,Incentive Prior Month,Incentive Current Year,Incentive Prior Year,Trend",
                "dataStartDate": "2017-09-01",
                "entityName": "Jeremy Fischer",
                "Incentive Prior Month": "$ 0.75",
                "Incentive Prior Year": "$ 0.00",
                "Other Revenue": "$ 0.00",
                "dataEndDate": "2017-09-19",
                "Incentive Tier": 0
            },
            {
                "Agent": "Jose Velez",
                "Incentive Current Year": "$ 0.00",
                "entityType": "User",
                "Incremental Revenue": "$ 0.00",
                "Room Upsell Revenue": "$ 0.00",
                "socialInteractionColumnNames": "Incremental Revenue,Commissionable Revenue,Room Upsell Revenue,Other Revenue,Incentive Payout,Trend",
                "Trend": "0%",
                "Commissionable Revenue": "$ 0.00",
                "entityId": 984,
                "Incentive Payout": "$ 0.00",
                "columnNames": "Agent,Incremental Revenue,Commissionable Revenue,Room Upsell Revenue,Other Revenue,Incentive Tier,Incentive Payout,Incentive Prior Month,Incentive Current Year,Incentive Prior Year,Trend",
                "dataStartDate": "2017-09-01",
                "entityName": "Jose Velez",
                "Incentive Prior Month": "$ 0.00",
                "Incentive Prior Year": "$ 0.00",
                "Other Revenue": "$ 0.00",
                "dataEndDate": "2017-09-19",
                "Incentive Tier": 0
            },
            {
                "Agent": "Joshua Mejia",
                "Incentive Current Year": "$ 3,979.39",
                "entityType": "User",
                "Incremental Revenue": "$ 0.00",
                "Room Upsell Revenue": "$ 0.00",
                "socialInteractionColumnNames": "Incremental Revenue,Commissionable Revenue,Room Upsell Revenue,Other Revenue,Incentive Payout,Trend",
                "Trend": "0%",
                "Commissionable Revenue": "$ 0.00",
                "entityId": 2632,
                "Incentive Payout": "$ 0.00",
                "columnNames": "Agent,Incremental Revenue,Commissionable Revenue,Room Upsell Revenue,Other Revenue,Incentive Tier,Incentive Payout,Incentive Prior Month,Incentive Current Year,Incentive Prior Year,Trend",
                "dataStartDate": "2017-09-01",
                "entityName": "Joshua Mejia",
                "Incentive Prior Month": "$ 0.00",
                "Incentive Prior Year": "$ 4,817.05",
                "Other Revenue": "$ 0.00",
                "dataEndDate": "2017-09-19",
                "Incentive Tier": 0
            },
            {
                "Agent": "Joshua Rainwater",
                "Incentive Current Year": "$ 4.50",
                "entityType": "User",
                "Incremental Revenue": "$ 0.00",
                "Room Upsell Revenue": "$ 0.00",
                "socialInteractionColumnNames": "Incremental Revenue,Commissionable Revenue,Room Upsell Revenue,Other Revenue,Incentive Payout,Trend",
                "Trend": "0%",
                "Commissionable Revenue": "$ 0.00",
                "entityId": 2869,
                "Incentive Payout": "$ 0.00",
                "columnNames": "Agent,Incremental Revenue,Commissionable Revenue,Room Upsell Revenue,Other Revenue,Incentive Tier,Incentive Payout,Incentive Prior Month,Incentive Current Year,Incentive Prior Year,Trend",
                "dataStartDate": "2017-09-01",
                "entityName": "Joshua Rainwater",
                "Incentive Prior Month": "$ 0.00",
                "Incentive Prior Year": "$ 3.50",
                "Other Revenue": "$ 0.00",
                "dataEndDate": "2017-09-19",
                "Incentive Tier": 0
            },
            {
                "Agent": "Joshua Whitaker",
                "Incentive Current Year": "$ 1,230.95",
                "entityType": "User",
                "Incremental Revenue": "$ 0.00",
                "Room Upsell Revenue": "$ 0.00",
                "socialInteractionColumnNames": "Incremental Revenue,Commissionable Revenue,Room Upsell Revenue,Other Revenue,Incentive Payout,Trend",
                "Trend": "0%",
                "Commissionable Revenue": "$ 0.00",
                "entityId": 2083,
                "Incentive Payout": "$ 0.00",
                "columnNames": "Agent,Incremental Revenue,Commissionable Revenue,Room Upsell Revenue,Other Revenue,Incentive Tier,Incentive Payout,Incentive Prior Month,Incentive Current Year,Incentive Prior Year,Trend",
                "dataStartDate": "2017-09-01",
                "entityName": "Joshua Whitaker",
                "Incentive Prior Month": "$ 0.00",
                "Incentive Prior Year": "$ 1,398.10",
                "Other Revenue": "$ 0.00",
                "dataEndDate": "2017-09-19",
                "Incentive Tier": 0
            },
            {
                "Agent": "Lark Gross",
                "Incentive Current Year": "$ 187.75",
                "entityType": "User",
                "Incremental Revenue": "$ 0.00",
                "Room Upsell Revenue": "$ 0.00",
                "socialInteractionColumnNames": "Incremental Revenue,Commissionable Revenue,Room Upsell Revenue,Other Revenue,Incentive Payout,Trend",
                "Trend": "0%",
                "Commissionable Revenue": "$ 0.00",
                "entityId": 2076,
                "Incentive Payout": "$ 0.00",
                "columnNames": "Agent,Incremental Revenue,Commissionable Revenue,Room Upsell Revenue,Other Revenue,Incentive Tier,Incentive Payout,Incentive Prior Month,Incentive Current Year,Incentive Prior Year,Trend",
                "dataStartDate": "2017-09-01",
                "entityName": "Lark Gross",
                "Incentive Prior Month": "$ 0.00",
                "Incentive Prior Year": "$ 640.40",
                "Other Revenue": "$ 0.00",
                "dataEndDate": "2017-09-19",
                "Incentive Tier": 0
            },
            {
                "Agent": "LaShanda Davis",
                "Incentive Current Year": "$ 42.48",
                "entityType": "User",
                "Incremental Revenue": "$ 0.00",
                "Room Upsell Revenue": "$ 0.00",
                "socialInteractionColumnNames": "Incremental Revenue,Commissionable Revenue,Room Upsell Revenue,Other Revenue,Incentive Payout,Trend",
                "Trend": "0%",
                "Commissionable Revenue": "$ 0.00",
                "entityId": 2531,
                "Incentive Payout": "$ 0.00",
                "columnNames": "Agent,Incremental Revenue,Commissionable Revenue,Room Upsell Revenue,Other Revenue,Incentive Tier,Incentive Payout,Incentive Prior Month,Incentive Current Year,Incentive Prior Year,Trend",
                "dataStartDate": "2017-09-01",
                "entityName": "LaShanda Davis",
                "Incentive Prior Month": "$ 0.00",
                "Incentive Prior Year": "$ 78.00",
                "Other Revenue": "$ 0.00",
                "dataEndDate": "2017-09-19",
                "Incentive Tier": 0
            },
            {
                "Agent": "Michael Sasenger",
                "Incentive Current Year": "$ 2,407.06",
                "entityType": "User",
                "Incremental Revenue": "$ 0.00",
                "Room Upsell Revenue": "$ 0.00",
                "socialInteractionColumnNames": "Incremental Revenue,Commissionable Revenue,Room Upsell Revenue,Other Revenue,Incentive Payout,Trend",
                "Trend": "0%",
                "Commissionable Revenue": "$ 0.00",
                "entityId": 5965,
                "Incentive Payout": "$ 0.00",
                "columnNames": "Agent,Incremental Revenue,Commissionable Revenue,Room Upsell Revenue,Other Revenue,Incentive Tier,Incentive Payout,Incentive Prior Month,Incentive Current Year,Incentive Prior Year,Trend",
                "dataStartDate": "2017-09-01",
                "entityName": "Michael Sasenger",
                "Incentive Prior Month": "$ 0.00",
                "Incentive Prior Year": "$ 0.00",
                "Other Revenue": "$ 0.00",
                "dataEndDate": "2017-09-19",
                "Incentive Tier": 0
            },
            {
                "Agent": "Mutabar Qodirova",
                "Incentive Current Year": "$ 7,702.05",
                "entityType": "User",
                "Incremental Revenue": "$ 0.00",
                "Room Upsell Revenue": "$ 0.00",
                "socialInteractionColumnNames": "Incremental Revenue,Commissionable Revenue,Room Upsell Revenue,Other Revenue,Incentive Payout,Trend",
                "Trend": "0%",
                "Commissionable Revenue": "$ 0.00",
                "entityId": 2082,
                "Incentive Payout": "$ 0.00",
                "columnNames": "Agent,Incremental Revenue,Commissionable Revenue,Room Upsell Revenue,Other Revenue,Incentive Tier,Incentive Payout,Incentive Prior Month,Incentive Current Year,Incentive Prior Year,Trend",
                "dataStartDate": "2017-09-01",
                "entityName": "Mutabar Qodirova",
                "Incentive Prior Month": "$ 0.00",
                "Incentive Prior Year": "$ 8,289.10",
                "Other Revenue": "$ 0.00",
                "dataEndDate": "2017-09-19",
                "Incentive Tier": 0
            },
            {
                "Agent": "Naomi Grace",
                "Incentive Current Year": "$ 0.00",
                "entityType": "User",
                "Incremental Revenue": "$ 0.00",
                "Room Upsell Revenue": "$ 0.00",
                "socialInteractionColumnNames": "Incremental Revenue,Commissionable Revenue,Room Upsell Revenue,Other Revenue,Incentive Payout,Trend",
                "Trend": "0%",
                "Commissionable Revenue": "$ 0.00",
                "entityId": 6263,
                "Incentive Payout": "$ 0.00",
                "columnNames": "Agent,Incremental Revenue,Commissionable Revenue,Room Upsell Revenue,Other Revenue,Incentive Tier,Incentive Payout,Incentive Prior Month,Incentive Current Year,Incentive Prior Year,Trend",
                "dataStartDate": "2017-09-01",
                "entityName": "Naomi Grace",
                "Incentive Prior Month": "$ 0.00",
                "Incentive Prior Year": "$ 0.00",
                "Other Revenue": "$ 0.00",
                "dataEndDate": "2017-09-19",
                "Incentive Tier": 0
            },
            {
                "Agent": "Nicole Brown",
                "Incentive Current Year": "$ 2,341.75",
                "entityType": "User",
                "Incremental Revenue": "$ 0.00",
                "Room Upsell Revenue": "$ 0.00",
                "socialInteractionColumnNames": "Incremental Revenue,Commissionable Revenue,Room Upsell Revenue,Other Revenue,Incentive Payout,Trend",
                "Trend": "0%",
                "Commissionable Revenue": "$ 0.00",
                "entityId": 2070,
                "Incentive Payout": "$ 0.00",
                "columnNames": "Agent,Incremental Revenue,Commissionable Revenue,Room Upsell Revenue,Other Revenue,Incentive Tier,Incentive Payout,Incentive Prior Month,Incentive Current Year,Incentive Prior Year,Trend",
                "dataStartDate": "2017-09-01",
                "entityName": "Nicole Brown",
                "Incentive Prior Month": "$ 0.00",
                "Incentive Prior Year": "$ 1,893.15",
                "Other Revenue": "$ 0.00",
                "dataEndDate": "2017-09-19",
                "Incentive Tier": 0
            },
            {
                "Agent": "Noel Orlanda",
                "Incentive Current Year": "$ 26.25",
                "entityType": "User",
                "Incremental Revenue": "$ 0.00",
                "Room Upsell Revenue": "$ 0.00",
                "socialInteractionColumnNames": "Incremental Revenue,Commissionable Revenue,Room Upsell Revenue,Other Revenue,Incentive Payout,Trend",
                "Trend": "0%",
                "Commissionable Revenue": "$ 0.00",
                "entityId": 2533,
                "Incentive Payout": "$ 0.00",
                "columnNames": "Agent,Incremental Revenue,Commissionable Revenue,Room Upsell Revenue,Other Revenue,Incentive Tier,Incentive Payout,Incentive Prior Month,Incentive Current Year,Incentive Prior Year,Trend",
                "dataStartDate": "2017-09-01",
                "entityName": "Noel Orlanda",
                "Incentive Prior Month": "$ 0.00",
                "Incentive Prior Year": "$ 17.50",
                "Other Revenue": "$ 0.00",
                "dataEndDate": "2017-09-19",
                "Incentive Tier": 0
            },
            {
                "Agent": "Ruben Wong",
                "Incentive Current Year": "$ 363.25",
                "entityType": "User",
                "Incremental Revenue": "$ 0.00",
                "Room Upsell Revenue": "$ 0.00",
                "socialInteractionColumnNames": "Incremental Revenue,Commissionable Revenue,Room Upsell Revenue,Other Revenue,Incentive Payout,Trend",
                "Trend": "0%",
                "Commissionable Revenue": "$ 0.00",
                "entityId": 2066,
                "Incentive Payout": "$ 0.00",
                "columnNames": "Agent,Incremental Revenue,Commissionable Revenue,Room Upsell Revenue,Other Revenue,Incentive Tier,Incentive Payout,Incentive Prior Month,Incentive Current Year,Incentive Prior Year,Trend",
                "dataStartDate": "2017-09-01",
                "entityName": "Ruben Wong",
                "Incentive Prior Month": "$ 0.00",
                "Incentive Prior Year": "$ 212.40",
                "Other Revenue": "$ 0.00",
                "dataEndDate": "2017-09-19",
                "Incentive Tier": 0
            },
            {
                "Agent": "Stephen Bell",
                "Incentive Current Year": "$ 659.85",
                "entityType": "User",
                "Incremental Revenue": "$ 0.00",
                "Room Upsell Revenue": "$ 0.00",
                "socialInteractionColumnNames": "Incremental Revenue,Commissionable Revenue,Room Upsell Revenue,Other Revenue,Incentive Payout,Trend",
                "Trend": "0%",
                "Commissionable Revenue": "$ 0.00",
                "entityId": 2080,
                "Incentive Payout": "$ 0.00",
                "columnNames": "Agent,Incremental Revenue,Commissionable Revenue,Room Upsell Revenue,Other Revenue,Incentive Tier,Incentive Payout,Incentive Prior Month,Incentive Current Year,Incentive Prior Year,Trend",
                "dataStartDate": "2017-09-01",
                "entityName": "Stephen Bell",
                "Incentive Prior Month": "$ 0.00",
                "Incentive Prior Year": "$ 1,017.30",
                "Other Revenue": "$ 0.00",
                "dataEndDate": "2017-09-19",
                "Incentive Tier": 0
            },
            {
                "Agent": "Steven Shaw",
                "Incentive Current Year": "$ 1,725.10",
                "entityType": "User",
                "Incremental Revenue": "$ 0.00",
                "Room Upsell Revenue": "$ 0.00",
                "socialInteractionColumnNames": "Incremental Revenue,Commissionable Revenue,Room Upsell Revenue,Other Revenue,Incentive Payout,Trend",
                "Trend": "0%",
                "Commissionable Revenue": "$ 0.00",
                "entityId": 2081,
                "Incentive Payout": "$ 0.00",
                "columnNames": "Agent,Incremental Revenue,Commissionable Revenue,Room Upsell Revenue,Other Revenue,Incentive Tier,Incentive Payout,Incentive Prior Month,Incentive Current Year,Incentive Prior Year,Trend",
                "dataStartDate": "2017-09-01",
                "entityName": "Steven Shaw",
                "Incentive Prior Month": "$ 0.00",
                "Incentive Prior Year": "$ 3,110.85",
                "Other Revenue": "$ 0.00",
                "dataEndDate": "2017-09-19",
                "Incentive Tier": 0
            },
            {
                "Agent": "Vinnicia Hollins",
                "Incentive Current Year": "$ 6,677.55",
                "entityType": "User",
                "Incremental Revenue": "$ 0.00",
                "Room Upsell Revenue": "$ 0.00",
                "socialInteractionColumnNames": "Incremental Revenue,Commissionable Revenue,Room Upsell Revenue,Other Revenue,Incentive Payout,Trend",
                "Trend": "0%",
                "Commissionable Revenue": "$ 0.00",
                "entityId": 2085,
                "Incentive Payout": "$ 0.00",
                "columnNames": "Agent,Incremental Revenue,Commissionable Revenue,Room Upsell Revenue,Other Revenue,Incentive Tier,Incentive Payout,Incentive Prior Month,Incentive Current Year,Incentive Prior Year,Trend",
                "dataStartDate": "2017-09-01",
                "entityName": "Vinnicia Hollins",
                "Incentive Prior Month": "$ 11.25",
                "Incentive Prior Year": "$ 6,893.80",
                "Other Revenue": "$ 0.00",
                "dataEndDate": "2017-09-19",
                "Incentive Tier": 0
            },
            {
                "Agent": "Viviene Belza",
                "Incentive Current Year": "$ 51.50",
                "entityType": "User",
                "Incremental Revenue": "$ 2,030.00",
                "Room Upsell Revenue": "$ 2,030.00",
                "socialInteractionColumnNames": "Incremental Revenue,Commissionable Revenue,Room Upsell Revenue,Other Revenue,Incentive Payout,Trend",
                "Trend": "100.00%",
                "Commissionable Revenue": "$ 2,030.00",
                "entityId": 2078,
                "Incentive Payout": "$ 203.00",
                "columnNames": "Agent,Incremental Revenue,Commissionable Revenue,Room Upsell Revenue,Other Revenue,Incentive Tier,Incentive Payout,Incentive Prior Month,Incentive Current Year,Incentive Prior Year,Trend",
                "dataStartDate": "2017-09-01",
                "entityName": "Viviene Belza",
                "Incentive Prior Month": "$ 0.00",
                "Incentive Prior Year": "$ 1,540.00",
                "Other Revenue": "$ 0.00",
                "dataEndDate": "2017-09-19",
                "Incentive Tier": 2
            }
        ]
    },
    "status": "SUCCESS",
    "statusCode": 200
}